Base path: '/Users/blackzen/Documents/unity_versions/2019.4.20f1/Unity.app/Contents', plugins path '/Users/blackzen/Documents/unity_versions/2019.4.20f1/Unity.app/Contents/PlaybackEngines'
Cmd: initializeCompiler

Quitting shader compiler process
